CART Get-out-the-Vote Analysis
…
library(tidyverse)
source("https://github.com/krisrs1128/stat479_notes/raw/refs/heads/master/activities/03-helpers.R")
set.seed(20251227)

The blow below reads in the data and renames the columns. The vector treatment_vars refers to the four mailers.

f <- tempfile()
download.file("https://zenodo.org/records/18371236/files/gotv_processed.rds?download=1", f)
social <- readRDS(f)

treatment_vars <- c("civic_duty", "hawthorne", "household", "neighbor")
social

# A tibble: 344,084 × 14
   y     civic_duty hawthorne household neighbor voted_2000_general
   <fct>      <dbl>     <dbl>     <dbl>    <dbl> <fct>             
 1 No             1         0         0        0 yes               
 2 No             1         0         0        0 yes               
 3 Yes            0         1         0        0 yes               
 4 Yes            0         1         0        0 yes               
 5 Yes            0         1         0        0 yes               
 6 No             0         0         0        0 no                
 7 Yes            0         0         0        0 yes               
 8 Yes            0         0         0        0 yes               
 9 No             0         0         0        0 no                
10 No             0         0         0        0 yes               
# ℹ 344,074 more rows
# ℹ 8 more variables: voted_2002_general <fct>, voted_2000_primary <fct>,
#   voted_2002_primary <fct>, voted_2004_primary <fct>, age <dbl>,
#   total_elections <int>, total_general_elections <int>,
#   total_primary_elections <int>
…
Now we divide samples according to these leaf IDs. Notice we’re only using samples that hadn’t been used during model fitting, to avoid the double dipping problem.

leaf_groups <- split(social[-ix, ], rownames(fit$frame)[fit$where])
head(leaf_groups, 3)

$`109`
# A tibble: 407 × 14
   y     civic_duty hawthorne household neighbor voted_2000_general
   <fct>      <dbl>     <dbl>     <dbl>    <dbl> <fct>             
 1 Yes            0         0         1        0 yes               
 2 No             0         0         0        0 yes               
 3 No             0         0         0        0 no                
 4 No             0         0         1        0 yes               
 5 No             0         0         0        1 no                
 6 Yes            1         0         0        0 yes               
 7 Yes            0         0         0        0 yes               
 8 Yes            1         0         0        0 yes               
 9 No             0         0         0        0 yes               
10 Yes            0         0         0        0 yes               
# ℹ 397 more rows
# ℹ 8 more variables: voted_2002_general <fct>, voted_2000_primary <fct>,
#   voted_2002_primary <fct>, voted_2004_primary <fct>, age <dbl>,
#   total_elections <int>, total_general_elections <int>,
#   total_primary_elections <int>

$`12`
# A tibble: 11,997 × 14
   y     civic_duty hawthorne household neighbor voted_2000_general
   <fct>      <dbl>     <dbl>     <dbl>    <dbl> <fct>             
 1 No             0         0         1        0 yes               
 2 Yes            0         0         0        0 yes               
 3 No             0         0         0        0 yes               
 4 Yes            0         0         0        1 yes               
 5 No             1         0         0        0 yes               
 6 Yes            0         0         0        0 yes               
 7 No             0         0         0        0 yes               
 8 Yes            0         0         0        0 yes               
 9 Yes            0         0         0        0 yes               
10 Yes            0         0         0        1 yes               
# ℹ 11,987 more rows
# ℹ 8 more variables: voted_2002_general <fct>, voted_2000_primary <fct>,
#   voted_2002_primary <fct>, voted_2004_primary <fct>, age <dbl>,
#   total_elections <int>, total_general_elections <int>,
#   total_primary_elections <int>

$`2`
# A tibble: 62,281 × 14
   y     civic_duty hawthorne household neighbor voted_2000_general
   <fct>      <dbl>     <dbl>     <dbl>    <dbl> <fct>             
 1 No             1         0         0        0 yes               
 2 No             0         0         0        0 no                
 3 No             0         0         0        0 yes               
 4 No             0         0         0        0 yes               
 5 Yes            0         0         0        1 no                
 6 No             0         0         0        0 yes               
 7 No             1         0         0        0 yes               
 8 No             0         0         0        0 yes               
 9 Yes            1         0         0        0 yes               
10 No             0         0         0        0 yes               
# ℹ 62,271 more rows
# ℹ 8 more variables: voted_2002_general <fct>, voted_2000_primary <fct>,
#   voted_2002_primary <fct>, voted_2004_primary <fct>, age <dbl>,
#   total_elections <int>, total_general_elections <int>,
#   total_primary_elections <int>
…
